ex3/somadorCompleto_tb.vcd
$date
	Wed Nov 06 09:33:11 2024
$end
$version
	Icarus Verilog
$end
$timescale
	1ns
$end
$scope module somadorCompleto_tb $end
$var wire 1 ! s $end
$var wire 1 " c_out $end
$var reg 1 # a $end
$var reg 1 $ b $end
$var reg 1 % c_in $end
$scope module uut $end
$var wire 1 # a $end
$var wire 1 $ b $end
$var wire 1 % c_in $end
$var wire 1 ! c_out $end
$var wire 1 " s $end
$upscope $end
$upscope $end
$enddefinitions $end
$comment Show the parameter values. $end
$dumpall
$end
#0
$dumpvars
0%
0$
0#
0"
0!
$end
#20
1"
1%
#40
0%
1$
#60
1!
0"
1%
#80
0!
1"
0%
0$
1#
#100
1!
0"
1%
#120
0%
1$
#140
1"
1%
